<?xml version="1.0" encoding="UTF-8" standalone="no"?>
<svg
   xmlns:dc="http://purl.org/dc/elements/1.1/"
   xmlns:cc="http://creativecommons.org/ns#"
   xmlns:rdf="http://www.w3.org/1999/02/22-rdf-syntax-ns#"
   xmlns:svg="http://www.w3.org/2000/svg"
   xmlns="http://www.w3.org/2000/svg"
   id="svg8"
   viewBox="0 0 107.805476646 52.7114584792"
   height="199.22441px"
   width="407.45377px"
   version="1.1">
  <defs
     id="defs160" />
  <metadata
     id="metadata5">
    <rdf:RDF>
      <cc:Work
         rdf:about="">
        <dc:format>image/svg+xml</dc:format>
        <dc:type
           rdf:resource="http://purl.org/dc/dcmitype/StillImage" />
        <dc:title />
      </cc:Work>
    </rdf:RDF>
  </metadata>
  <g
     id="g157"
     transform="matrix(1.000000,0.000000,0.000000,1.000000,782.212738,-2189.341232)">
    <path
       id="path1171"
       d="m -776.91091,2237.0548 c -1.67541,-2.7494 -3.07044,-7.7751 -3.10011,-11.1685 -0.0293,-3.3933 -0.76526,-8.0406 -1.63463,-10.3274 -1.65704,-4.3582 0.6328,-7.9601 2.81585,-4.4283 0.80556,1.3032 2.57297,1.1523 6.69983,-0.5722 3.08321,-1.2883 6.93824,-2.3424 8.56667,-2.3424 3.24637,0 5.44113,-3.8558 3.7997,-6.6753 -0.57129,-0.9812 0.36871,-0.5521 2.08831,0.9525 2.43854,2.1342 4.61247,2.5201 9.87724,1.7531 3.71271,-0.5406 8.28737,-0.917 10.16595,-0.8354 5.13395,0.2228 11.19583,-2.5159 11.19583,-5.0591 0,-1.2371 1.21118,-2.2835 2.69157,-2.3248 7.26769,-0.2034 9.44756,-0.6376 17.17479,-3.4183 11.58279,-4.1687 27.47824,-4.3902 30.45113,-0.4245 3.22694,4.3047 1.67445,15.2821 -2.84452,20.1134 -6.19709,6.6255 -21.20387,14.3967 -32.67585,16.9209 -6.02358,1.3256 -19.61277,4.7554 -30.19824,7.6221 -10.58536,2.8666 -22.12187,5.2121 -25.63679,5.2121 -5.55962,0 -6.78664,-0.65 -9.43673,-4.9985 z"
       style="fill:#000000;stroke-width:1.53804469" />
  </g>
</svg>
