<?xml version="1.0" encoding="UTF-8" standalone="no"?>
<svg
   xmlns:dc="http://purl.org/dc/elements/1.1/"
   xmlns:cc="http://creativecommons.org/ns#"
   xmlns:rdf="http://www.w3.org/1999/02/22-rdf-syntax-ns#"
   xmlns:svg="http://www.w3.org/2000/svg"
   xmlns="http://www.w3.org/2000/svg"
   id="svg8"
   viewBox="0 0 94.673547 69.9995927708"
   height="264.56539px"
   width="357.82128px"
   version="1.1">
  <defs
     id="defs144" />
  <metadata
     id="metadata5">
    <rdf:RDF>
      <cc:Work
         rdf:about="">
        <dc:format>image/svg+xml</dc:format>
        <dc:type
           rdf:resource="http://purl.org/dc/dcmitype/StillImage" />
        <dc:title />
      </cc:Work>
    </rdf:RDF>
  </metadata>
  <g
     id="g141"
     transform="matrix(1.000000,0.000000,0.000000,1.000000,331.760883,-2185.342399)">
    <path
       id="path1229"
       d="m -263.05081,2253.2541 c -0.47145,-1.2285 -0.3523,-3.0499 0.2641,-4.0474 1.84568,-2.9864 -19.63712,-0.2092 -21.9966,2.8432 -1.76072,2.278 -1.92252,2.2685 -1.92252,-0.1141 0,-3.3072 -4.38925,-3.3564 -9.03652,-0.1017 -7.3028,5.1151 -40.21139,-0.748 -35.5725,-6.3379 1.17816,-1.4195 1.29458,-3.0323 0.34164,-4.7346 -2.18068,-3.8965 1.60025,-10.0744 11.16772,-18.2482 5.78073,-4.9386 9.88908,-10.2481 13.31584,-17.2088 5.97989,-12.1469 11.89687,-16.9913 23.33591,-19.106 7.58193,-1.4015 9.35884,-1.2149 14.7856,1.5537 3.39228,1.7306 6.98673,4.7015 7.98773,6.6022 1.00074,1.9005 2.32103,3.8015 2.93381,4.2246 5.25792,3.6293 13.80576,11.4568 13.80576,12.6424 0,0.8115 1.54744,2.7289 3.4386,4.2604 7.61085,6.1627 0.52424,25.6158 -13.12303,36.0254 -5.91613,4.5123 -8.48695,4.9738 -9.7257,1.746 z"
       style="fill:#000000;stroke-width:1.53804469" />
  </g>
</svg>
