<?xml version="1.0" encoding="UTF-8" standalone="no"?>
<svg
   xmlns:dc="http://purl.org/dc/elements/1.1/"
   xmlns:cc="http://creativecommons.org/ns#"
   xmlns:rdf="http://www.w3.org/1999/02/22-rdf-syntax-ns#"
   xmlns:svg="http://www.w3.org/2000/svg"
   xmlns="http://www.w3.org/2000/svg"
   id="svg8"
   viewBox="0 0 128.147950354 93.206935125"
   height="352.27818px"
   width="484.33871px"
   version="1.1">
  <defs
     id="defs104" />
  <metadata
     id="metadata5">
    <rdf:RDF>
      <cc:Work
         rdf:about="">
        <dc:format>image/svg+xml</dc:format>
        <dc:type
           rdf:resource="http://purl.org/dc/dcmitype/StillImage" />
        <dc:title />
      </cc:Work>
    </rdf:RDF>
  </metadata>
  <g
     id="g101"
     transform="matrix(1.000000,0.000000,0.000000,1.000000,1306.881911,-1990.134800)">
    <path
       id="path1259"
       d="m -1240.7459,2082.9891 c -4.4568,-0.6077 -7.327,-3.5628 -3.4606,-3.5628 0.846,0 1.538,-0.9199 1.538,-2.0447 0,-1.1313 -1.5459,-1.9901 -3.4605,-1.9226 -2.802,0.098 -3.3819,-0.6096 -3.0468,-3.7229 0.2276,-2.1149 1.5614,-4.7033 2.9638,-5.7519 1.4026,-1.0487 2.0874,-2.3692 1.5221,-2.9345 -0.5656,-0.5656 -0.2572,-1.9567 0.6846,-3.092 2.3009,-2.7723 -0.9179,-2.8134 -3.5049,-0.048 -1.5482,1.6576 -2.386,1.5198 -4.6747,-0.7691 -3.3923,-3.3921 -3.5523,-5.6678 -0.481,-6.8462 1.2689,-0.4869 2.307,-2.1471 2.307,-3.6895 0,-2.3325 -0.7115,-2.5968 -4.2296,-1.5719 -7.0299,2.0483 -17.3519,7.9959 -16.4392,9.4725 0.4704,0.7615 -1.6075,1.3849 -4.6181,1.3849 -3.0107,0 -5.474,-0.773 -5.474,-1.7174 0,-1.0761 -1.2927,-1.3138 -3.4605,-0.6366 -5.248,1.639 -11.6956,1.0111 -16.8178,-1.6377 -3.765,-1.947 -4.4365,-3.0659 -3.6709,-6.1165 0.5156,-2.0538 0.3187,-3.734 -0.4378,-3.734 -0.7566,0 -1.3751,-1.677 -1.3751,-3.7267 0,-4.3691 6.2228,-6.777 9.8135,-3.797 3.1807,2.6398 16.4901,-0.6202 29.4317,-7.2092 10.9563,-5.5782 16.4279,-9.7915 20.7737,-15.996 3.5968,-5.1351 3.3791,-5.7575 -1.7509,-5.0046 -3.8224,0.5607 -4.5171,0.077 -5.2353,-3.6847 -0.673,-3.5226 0.1786,-5.2809 4.5601,-9.4135 l 5.3882,-5.0817 5.7849,5.0395 c 11.4385,9.9648 23.9661,19.2695 27.3619,20.3229 1.9033,0.5905 3.4607,1.6078 3.4607,2.261 0,1.5951 7.1232,4.7573 10.7164,4.7573 1.9582,0 3.2099,1.4952 3.9064,4.6663 1.0948,4.9845 6.1036,9.1908 11.4215,9.5913 2.3015,0.1737 2.9566,0.9361 2.2378,2.6066 -0.5588,1.2988 -1.1982,5.8494 -1.4203,10.1122 -0.9265,17.7782 -14.3896,30.696 -33.7831,32.4141 -17.5872,1.5583 -21.7747,1.7286 -26.5313,1.0801 z"
       style="fill:#000000;stroke-width:1.53804469" />
  </g>
</svg>
