<?xml version="1.0" encoding="UTF-8" standalone="no"?>
<svg
   xmlns:dc="http://purl.org/dc/elements/1.1/"
   xmlns:cc="http://creativecommons.org/ns#"
   xmlns:rdf="http://www.w3.org/1999/02/22-rdf-syntax-ns#"
   xmlns:svg="http://www.w3.org/2000/svg"
   xmlns="http://www.w3.org/2000/svg"
   id="svg8"
   viewBox="0 0 163.56822125 48.8002156667"
   height="184.44176px"
   width="618.2106px"
   version="1.1">
  <defs
     id="defs120" />
  <metadata
     id="metadata5">
    <rdf:RDF>
      <cc:Work
         rdf:about="">
        <dc:format>image/svg+xml</dc:format>
        <dc:type
           rdf:resource="http://purl.org/dc/dcmitype/StillImage" />
        <dc:title />
      </cc:Work>
    </rdf:RDF>
  </metadata>
  <g
     id="g117"
     transform="matrix(1.000000,0.000000,0.000000,1.000000,856.619471,-1978.175739)">
    <path
       id="path1251"
       d="m -825.68153,2024.8142 c -2.0176,-1.1094 -4.19154,-2.8638 -4.83092,-3.8983 -0.70668,-1.1426 -4.59703,-1.85 -9.91459,-1.8022 -6.65019,0.058 -9.46102,-0.6298 -11.70323,-2.8723 -3.13717,-3.1371 -3.87498,-6.027 -1.53865,-6.027 3.15532,0 6.278,1.9944 6.278,4.0097 0,1.2866 1.61117,2.1426 4.03343,2.1426 3.35696,0 3.72171,-0.3755 2.17467,-2.2398 -1.02238,-1.2318 -1.41413,-2.9592 -0.87086,-3.8385 0.54345,-0.8795 -0.723,-2.3784 -2.81332,-3.3309 -2.09086,-0.9526 -4.15488,-3.0833 -4.58676,-4.7349 -0.43207,-1.6515 -2.22081,-3.3781 -3.97541,-3.837 -1.75464,-0.459 -3.19029,-1.8467 -3.19029,-3.0842 0,-1.6663 1.12185,-2.0035 4.32513,-1.3 5.01971,1.1027 12.37453,-2.1308 11.41243,-5.0174 -0.40711,-1.2225 1.43441,-0.7816 4.92591,1.1795 6.54341,3.6754 8.0719,3.9444 5.61943,0.9895 -1.43517,-1.7294 -0.27254,-3.0696 6.0208,-6.9421 l 7.7994,-4.7991 32.62651,-0.9592 c 34.79209,-1.0233 63.28185,0.8075 80.95371,5.2033 8.09162,2.0126 9.27273,2.6796 6.53672,3.6919 -4.17746,1.5452 -4.1768,2.5518 0.004,7.0029 l 3.34418,3.5597 h -6.19071 c -11.83448,0 -22.80691,4.8314 -24.95279,10.9869 -1.14512,3.285 -2.5221,4.3937 -5.45668,4.3937 -2.15887,0 -3.92522,0.6787 -3.92522,1.5085 0,0.8296 -1.90327,1.9331 -4.22957,2.4516 -2.32631,0.5185 -6.55475,1.9842 -9.39648,3.2572 -6.40708,2.8705 -31.1895,5.2059 -52.18883,4.9183 -8.70576,-0.12 -16.26138,0.2162 -16.79035,0.745 -1.45694,1.4572 -5.41011,0.8931 -9.50064,-1.3568 z"
       style="fill:#000000;stroke-width:1.53804469" />
  </g>
</svg>
