<?xml version="1.0" encoding="UTF-8" standalone="no"?>
<svg
   xmlns:dc="http://purl.org/dc/elements/1.1/"
   xmlns:cc="http://creativecommons.org/ns#"
   xmlns:rdf="http://www.w3.org/1999/02/22-rdf-syntax-ns#"
   xmlns:svg="http://www.w3.org/2000/svg"
   xmlns="http://www.w3.org/2000/svg"
   id="svg8"
   viewBox="0 0 22.3687745833 20.7554581292"
   height="78.445826px"
   width="84.5434px"
   version="1.1">
  <defs
     id="defs104" />
  <metadata
     id="metadata5">
    <rdf:RDF>
      <cc:Work
         rdf:about="">
        <dc:format>image/svg+xml</dc:format>
        <dc:type
           rdf:resource="http://purl.org/dc/dcmitype/StillImage" />
        <dc:title />
      </cc:Work>
    </rdf:RDF>
  </metadata>
  <g
     id="g101"
     transform="matrix(1.000000,0.000000,0.000000,1.000000,2754.030719,-1906.416506)">
    <path
       id="path1033"
       d="m -2750.5988,1924.5117 c -4.5227,-4.8545 -4.5758,-9.6908 -0.1555,-14.1116 7.1799,-7.1799 17.1898,-4.2424 18.7721,5.5089 0.7595,4.6804 0.3216,5.8561 -2.9913,8.0266 -6.2583,4.1007 -12.1403,4.3175 -15.6258,0.5762 z"
       style="fill:#000000;stroke-width:1.53804469" />
  </g>
</svg>
