<?xml version="1.0" encoding="UTF-8" standalone="no"?>
<svg
   xmlns:dc="http://purl.org/dc/elements/1.1/"
   xmlns:cc="http://creativecommons.org/ns#"
   xmlns:rdf="http://www.w3.org/1999/02/22-rdf-syntax-ns#"
   xmlns:svg="http://www.w3.org/2000/svg"
   xmlns="http://www.w3.org/2000/svg"
   id="svg8"
   viewBox="0 0 111.82397625 122.019708229"
   height="461.17685px"
   width="422.6418px"
   version="1.1">
  <defs
     id="defs370" />
  <metadata
     id="metadata5">
    <rdf:RDF>
      <cc:Work
         rdf:about="">
        <dc:format>image/svg+xml</dc:format>
        <dc:type
           rdf:resource="http://purl.org/dc/dcmitype/StillImage" />
        <dc:title />
      </cc:Work>
    </rdf:RDF>
  </metadata>
  <g
     id="g367"
     transform="matrix(1.000000,0.000000,0.000000,1.000000,-374.221851,-2723.176763)">
    <path
       id="path1279"
       d="m 379.65538,2841.8295 c -1.31692,-1.8801 -2.39431,-5.6868 -2.39431,-8.4593 0,-2.7725 -0.69228,-5.041 -1.53806,-5.041 -2.66362,0 -1.67762,-3.5271 2.12638,-7.606 2.01537,-2.1612 9.05975,-11.8887 15.65429,-21.6168 6.59462,-9.7281 12.4129,-18.0336 12.92965,-18.4566 0.8949,-0.7326 6.89865,-8.5751 21.43865,-28.0036 6.09246,-8.1407 6.92233,-8.711 11.43162,-7.858 7.13025,1.349 10.59796,3.5019 9.644,5.9878 -2.06993,5.3941 2.54237,1.2203 10.82063,-9.7921 11.90311,-15.8346 15.74315,-18.9744 21.36702,-17.4704 2.39649,0.6414 4.60009,1.8932 4.89657,2.7826 0.29663,0.8892 -4.15722,6.6621 -9.89711,12.8281 -5.73982,6.166 -11.41294,12.6678 -12.60672,14.4483 -3.7081,5.5309 -20.32944,24.4644 -27.14592,30.9225 -6.02562,5.7088 -19.13188,22.5645 -19.13188,24.6054 0,0.4934 -1.27783,2.7723 -2.83965,5.0642 -1.5619,2.292 -6.09392,9.1692 -10.07097,15.2826 -3.97719,6.1134 -8.73646,12.1694 -10.57595,13.4578 -4.9066,3.437 -11.28842,2.9503 -14.10824,-1.0755 z"
       style="fill:#000000;stroke-width:1.53804469" />
  </g>
</svg>
