<?xml version="1.0" encoding="UTF-8" standalone="no"?>
<svg
   xmlns:dc="http://purl.org/dc/elements/1.1/"
   xmlns:cc="http://creativecommons.org/ns#"
   xmlns:rdf="http://www.w3.org/1999/02/22-rdf-syntax-ns#"
   xmlns:svg="http://www.w3.org/2000/svg"
   xmlns="http://www.w3.org/2000/svg"
   id="svg8"
   viewBox="0 0 82.5523521458 80.9013627292"
   height="305.76893px"
   width="312.00889px"
   version="1.1">
  <defs
     id="defs322" />
  <metadata
     id="metadata5">
    <rdf:RDF>
      <cc:Work
         rdf:about="">
        <dc:format>image/svg+xml</dc:format>
        <dc:type
           rdf:resource="http://purl.org/dc/dcmitype/StillImage" />
        <dc:title />
      </cc:Work>
    </rdf:RDF>
  </metadata>
  <g
     id="g319"
     transform="matrix(1.000000,0.000000,0.000000,1.000000,-67.078598,-3034.980548)">
    <path
       id="path1321"
       d="m 81.942236,3113.6184 c -1.56269,-1.883 -1.4054,-3.7071 0.82966,-9.6127 1.51685,-4.0088 3.77814,-8.8675 5.02488,-10.7972 3.20355,-4.9583 1.57925,-5.5946 -4.74932,-1.8607 l -5.44922,3.2152 -5.60186,-5.6019 c -4.84867,-4.8487 -5.46398,-6.255 -4.5758,-10.4585 1.36508,-6.4605 11.20565,-19.404 24.48235,-32.2026 l 10.817434,-10.4279 9.22831,0.1921 c 5.07559,0.1064 10.9586,-0.2601 13.07335,-0.8133 2.35762,-0.6155 4.98652,-0.1613 6.79535,1.1763 2.88854,2.1352 2.87699,2.2837 -0.55221,7.0996 -4.29998,6.0388 -3.59848,7.0266 2.74375,3.8627 3.9865,-1.9887 5.8485,-2.1081 10.24692,-0.6568 2.9564,0.9757 5.37512,2.347 5.37512,3.0472 0,0.7 -2.42134,4.1715 -5.38079,7.7138 -2.95945,3.5421 -7.87622,11.74 -10.92619,18.2175 -15.25516,32.3977 -18.0178,37.2187 -21.88371,38.189 -4.50841,1.1316 -8.13914,-0.7796 -10.23791,-5.3895 -1.872474,-4.1132 -3.286444,-4.2134 -5.338724,-0.3784 -4.05391,7.5748 -10.18277,9.9901 -13.92073,5.4861 z"
       style="fill:#000000;stroke-width:1.53804469" />
  </g>
</svg>
