<?xml version="1.0" encoding="UTF-8" standalone="no"?>
<svg
   xmlns:dc="http://purl.org/dc/elements/1.1/"
   xmlns:cc="http://creativecommons.org/ns#"
   xmlns:rdf="http://www.w3.org/1999/02/22-rdf-syntax-ns#"
   xmlns:svg="http://www.w3.org/2000/svg"
   xmlns="http://www.w3.org/2000/svg"
   id="svg8"
   viewBox="0 0 99.3543013333 123.563337667"
   height="467.01104px"
   width="375.51232px"
   version="1.1">
  <defs
     id="defs210" />
  <metadata
     id="metadata5">
    <rdf:RDF>
      <cc:Work
         rdf:about="">
        <dc:format>image/svg+xml</dc:format>
        <dc:type
           rdf:resource="http://purl.org/dc/dcmitype/StillImage" />
        <dc:title />
      </cc:Work>
    </rdf:RDF>
  </metadata>
  <g
     id="g207"
     transform="matrix(1.000000,0.000000,0.000000,1.000000,-435.706573,-3193.751185)">
    <path
       id="path1353"
       d="m 471.10838,3315.1515 c -1.43294,-1.7268 -1.4766,-3.4547 -0.18148,-7.1707 2.40804,-6.9073 0.8075,-7.4083 -2.37135,-0.7422 -2.76395,5.7965 -5.75674,7.1798 -7.22949,3.3417 -0.95927,-2.5008 3.45622,-19.5258 8.1602,-31.4594 1.69877,-4.3098 2.76265,-7.8359 2.36416,-7.8359 -0.39848,0 -2.77688,4.0657 -5.28517,9.0347 -4.94409,9.7941 -8.54649,12.3986 -12.15644,8.7887 -2.02024,-2.0203 -1.73262,-3.8486 2.48962,-15.8214 5.35761,-15.1929 4.98746,-14.8569 -6.26682,5.6882 -5.99605,10.9461 -8.87188,14.7348 -11.46438,15.1031 -1.95572,0.2776 -3.46066,-0.3198 -3.46066,-1.3731 0,-1.0253 5.10675,-11.2822 11.34807,-22.7931 20.2767,-37.3955 26.43897,-46.4502 33.03874,-48.5449 3.77451,-1.1979 6.17804,2.546 3.6712,5.7186 -1.25698,1.5906 -3.59702,10.3622 -2.76468,10.3622 0.14486,0 3.28834,-4.6718 6.98554,-10.3819 9.76344,-15.0793 14.71123,-18.2303 15.69745,-9.9972 0.48399,4.0412 0.75861,3.8531 6.15697,-4.2296 3.10773,-4.6526 7.25137,-10.3172 9.20833,-12.5882 3.78736,-4.3951 14.42165,-8.1996 15.96036,-5.7098 0.82479,1.3343 -8.14749,18.5861 -23.68983,45.5511 -3.52009,6.1071 -6.40006,11.5378 -6.40006,12.0686 0,0.531 2.9415,-2.2689 6.53671,-6.2214 4.62487,-5.0848 7.28907,-6.8929 9.1093,-6.1822 4.54793,1.7759 4.35774,5.1153 -1.01673,17.8588 -2.89617,6.8671 -5.74083,15.6933 -6.32116,19.6139 -1.54641,10.4449 -4.56972,18.1116 -10.95031,27.769 -8.11655,12.2845 -8.89419,12.933 -12.67865,10.5694 -1.72469,-1.077 -3.14339,-3.3489 -3.15284,-5.0488 -0.0182,-2.6051 -0.63561,-2.3054 -3.95656,1.9079 -4.23874,5.3785 -8.35869,6.3646 -11.38011,2.7239 z"
       style="fill:#000000;stroke-width:1.53804469" />
  </g>
</svg>
