<?xml version="1.0" encoding="UTF-8" standalone="no"?>
<svg
   xmlns:dc="http://purl.org/dc/elements/1.1/"
   xmlns:cc="http://creativecommons.org/ns#"
   xmlns:rdf="http://www.w3.org/1999/02/22-rdf-syntax-ns#"
   xmlns:svg="http://www.w3.org/2000/svg"
   xmlns="http://www.w3.org/2000/svg"
   id="svg8"
   viewBox="0 0 219.241018104 176.967186917"
   height="668.85236px"
   width="828.62747px"
   version="1.1">
  <defs
     id="defs66" />
  <metadata
     id="metadata5">
    <rdf:RDF>
      <cc:Work
         rdf:about="">
        <dc:format>image/svg+xml</dc:format>
        <dc:type
           rdf:resource="http://purl.org/dc/dcmitype/StillImage" />
        <dc:title />
      </cc:Work>
    </rdf:RDF>
  </metadata>
  <g
     id="g63"
     transform="matrix(1.000000,0.000000,0.000000,1.000000,1240.063031,-3286.665444)">
    <path
       id="path1395"
       d="m -1142.9303,3461.1114 c -1.3834,-3.6051 0.5588,-10.1322 4.3109,-14.4892 1.8213,-2.1149 5.6574,-7.2379 8.5246,-11.3848 l 5.2131,-7.5395 -3.51,-2.8423 c -1.9304,-1.563 -5.5314,-2.8421 -8.002,-2.8421 -6.658,0 -6.8652,-3.3706 -0.9209,-14.9768 3.3704,-6.5798 5.7046,-13.7468 6.3539,-19.5087 l 1.0264,-9.1076 -2.8741,3.7245 c -1.5809,2.0484 -5.6887,8.5693 -9.1287,14.4908 -6.9406,11.9474 -24.3739,33.1177 -30.6677,37.2415 -3.9937,2.6168 -4.1149,2.588 -7.2712,-1.7252 -1.7654,-2.4123 -6.4763,-7.5055 -10.4686,-11.3179 -9.4588,-9.0326 -12.844,-17.5358 -10.4784,-26.3208 0.9515,-3.5349 3.7624,-9.6942 6.2457,-13.6876 2.4832,-3.9933 5.2223,-8.8702 6.0869,-10.8377 0.8641,-1.9672 3.5277,-6.4661 5.9181,-9.9973 6.3409,-9.3669 7.1659,-10.9155 5.1521,-9.6708 -2.1269,1.3145 -23.3531,29.2935 -23.3531,30.7825 0,3.4531 -15.9203,26.6706 -19.7635,28.8222 -4.3774,2.4509 -4.5531,2.4181 -6.1804,-1.1535 -0.9209,-2.0219 -2.3819,-3.6761 -3.2459,-3.6761 -0.8642,0 -1.5711,-1.0102 -1.5711,-2.2448 0,-1.2347 -1.8876,-3.9952 -4.1947,-6.1343 -6.5173,-6.0433 -5.7442,-13.1784 2.7244,-25.1443 31.8742,-45.0367 74.7288,-84.9061 91.2636,-84.9061 4.8268,0 10.0672,2.4529 12.8595,6.0188 2.6264,3.3544 0.9515,16.8313 -3.615,29.0818 l -3.6241,9.7231 9.1302,-7.629 c 13.3369,-11.144 28.219,-17.5545 33.1111,-14.2625 1.9947,1.3422 9.8204,3.8618 22.3017,7.1803 5.4985,1.462 11.0783,3.5795 12.3996,4.706 1.3213,1.1263 5.8201,2.174 9.9974,2.3281 14.0815,0.5195 28.3585,11.0401 28.3585,20.8973 0,5.5709 -7.1704,27.5838 -9.4425,28.9881 -0.7278,0.4503 -1.3239,1.8872 -1.3239,3.1937 0,2.8935 -32.1361,67.4221 -33.5803,67.4284 -0.5646,0 -4.1084,3.0001 -7.8763,6.6614 -6.4204,6.2387 -6.98,6.4799 -8.9101,3.8407 -1.2325,-1.6854 -3.5178,-2.6255 -5.6913,-2.3411 -4.7838,0.626 -5.2968,-0.4926 -5.6203,-12.2513 -0.1903,-6.9114 -1.1058,-10.98 -2.9967,-13.3152 -1.4977,-1.8493 -3.037,-3.3626 -3.4208,-3.3626 -0.3841,0 -2.6508,2.9415 -5.0378,6.5366 -2.387,3.5952 -10.2531,12.5929 -17.4801,19.9946 -13.111,13.428 -18.6724,16.3871 -20.7286,11.0287 z"
       style="fill:#000000;stroke-width:1.53804469" />
  </g>
</svg>
