<?xml version="1.0" encoding="UTF-8" standalone="no"?>
<svg
   xmlns:dc="http://purl.org/dc/elements/1.1/"
   xmlns:cc="http://creativecommons.org/ns#"
   xmlns:rdf="http://www.w3.org/1999/02/22-rdf-syntax-ns#"
   xmlns:svg="http://www.w3.org/2000/svg"
   xmlns="http://www.w3.org/2000/svg"
   id="svg8"
   viewBox="0 0 95.689340625 87.4059137917"
   height="330.35306px"
   width="361.6605px"
   version="1.1">
  <defs
     id="defs298" />
  <metadata
     id="metadata5">
    <rdf:RDF>
      <cc:Work
         rdf:about="">
        <dc:format>image/svg+xml</dc:format>
        <dc:type
           rdf:resource="http://purl.org/dc/dcmitype/StillImage" />
        <dc:title />
      </cc:Work>
    </rdf:RDF>
  </metadata>
  <g
     id="g295"
     transform="matrix(1.000000,0.000000,0.000000,1.000000,455.681583,-3111.590917)">
    <path
       id="path1329"
       d="m -422.80128,3195.5364 c -0.40619,-2.8526 -1.30344,-3.3701 -5.10568,-2.9448 -9.96479,1.1144 -10.67323,1.0004 -11.24098,-1.8091 -0.31499,-1.5572 -3.27779,-5.5369 -6.5847,-8.8437 -3.30687,-3.3068 -6.01244,-7.4038 -6.01244,-9.1044 0,-1.7005 2.42234,-6.5383 5.38316,-10.7505 2.96067,-4.2123 5.38312,-8.0925 5.38312,-8.6227 0,-0.5301 -1.73036,-0.6338 -3.84515,-0.2287 -2.62229,0.5012 -3.84508,0.048 -3.84508,-1.4211 0,-1.1858 -1.31385,-4.0314 -2.91963,-6.3234 -1.60568,-2.292 -3.29253,-6.7628 -3.74834,-9.935 -0.73357,-5.1046 -0.45607,-5.7677 2.41688,-5.7677 1.78515,0 9.52799,-3.0281 17.20636,-6.7291 14.36598,-6.9244 21.5979,-9.1646 28.95644,-8.9692 2.32628,0.058 4.22963,-0.6222 4.22963,-1.5196 0,-2.2714 11.54373,-0.27 16.25783,2.8189 2.22195,1.456 3.73678,3.9302 3.73678,6.1036 0,2.0104 1.31514,4.4766 2.92262,5.4804 1.61165,1.0064 2.54185,2.8175 2.07387,4.0371 -0.69131,1.8012 -0.25242,1.8931 2.35943,0.4945 4.41521,-2.3628 4.14888,-2.6112 6.51301,6.0708 1.16636,4.2831 2.64548,8.112 3.28695,8.5084 1.63959,1.0133 -0.13827,5.2497 -4.34422,10.3532 -5.13447,6.2294 -4.44618,7.3254 2.49443,3.9721 8.05505,-3.8919 9.0221,-3.7044 4.68849,0.9083 -1.98673,2.1148 -4.17583,3.8451 -4.86467,3.8451 -1.24017,0 -5.48645,3.1859 -10.31989,7.743 -1.37657,1.2978 -5.61749,4.3476 -9.42414,6.7772 -3.80669,2.4296 -8.65158,5.5725 -10.76637,6.9839 -3.91326,2.6119 -22.65591,12.3328 -23.77877,12.3328 -0.33872,0 -0.8382,-1.5572 -1.10894,-3.4605 z"
       style="fill:#000000;stroke-width:1.53804469" />
  </g>
</svg>
