<?xml version="1.0" encoding="UTF-8" standalone="no"?>
<svg
   xmlns:dc="http://purl.org/dc/elements/1.1/"
   xmlns:cc="http://creativecommons.org/ns#"
   xmlns:rdf="http://www.w3.org/1999/02/22-rdf-syntax-ns#"
   xmlns:svg="http://www.w3.org/2000/svg"
   xmlns="http://www.w3.org/2000/svg"
   enable-background="new"
   id="svg8"
   viewBox="0 0 936.910511875 311.702211875"
   height="1178.0871px"
   width="3541.0791px"
   version="1.1">
  <defs
     id="defs64" />
  <metadata
     id="metadata5">
    <rdf:RDF>
      <cc:Work
         rdf:about="">
        <dc:format>image/svg+xml</dc:format>
        <dc:type
           rdf:resource="http://purl.org/dc/dcmitype/StillImage" />
        <dc:title />
      </cc:Work>
    </rdf:RDF>
  </metadata>
  <g
     id="g61"
     transform="matrix(1.000000,0.000000,0.000000,1.000000,-62.630770,-7596.966698)">
    <path
       style="fill:#000000;fill-opacity:1;stroke:none;stroke-width:3.16499996;stroke-miterlimit:4;stroke-dasharray:none;stroke-dashoffset:15.61700821;stroke-opacity:1"
       id="path2052"
       d="m 79.306275,7856.266 c 10.519286,-4.4794 21.227075,-8.5029 31.774935,-12.9272 27.64746,-11.3499 55.24119,-22.823 82.98687,-33.9318 40.74415,-16.3028 81.45365,-32.6983 122.76571,-47.5133 57.30866,-18.8556 115.38396,-35.233 173.57435,-51.1104 56.21901,-15.122 113.01365,-27.9585 169.90057,-40.2823 46.71468,-9.8793 93.2951,-20.3671 139.75046,-31.3965 28.39749,-6.6982 56.63128,-14.0547 84.82531,-21.5535 17.08493,-4.7138 34.19694,-9.3316 51.39756,-13.6059 9.62554,-2.3178 19.32508,-4.3278 29.03529,-6.2577 37.81667,-7.5089 48.43567,45.9722 10.61895,53.4808 v 0 c -8.86582,1.7584 -17.72171,3.5906 -26.5122,5.6943 -16.91019,4.1974 -33.72758,8.7543 -50.5246,13.3813 -28.66578,7.6243 -57.37294,15.1001 -86.2453,21.911 -46.80561,11.1122 -93.73672,21.6807 -140.80329,31.6354 -55.94574,12.1156 -111.80124,24.7335 -167.0917,39.5957 -56.8308,15.5027 -113.54599,31.4981 -169.53829,49.8388 -40.69246,14.5587 -80.75491,30.7755 -120.88777,46.8013 -27.48001,11.0006 -54.80747,22.3671 -82.1905,33.6055 -9.4276,3.9423 -18.89836,7.7769 -28.45207,11.4031 -34.484589,17.2423 -58.868878,-31.5262 -24.384285,-48.7686 z" />
  </g>
</svg>
