<?xml version="1.0" encoding="UTF-8"?>
<glyph name="braceright" format="1">
  <advance width="373"/>
  <unicode hex="007D"/>
  <outline>
    <contour>
      <point x="283" y="279" type="curve" smooth="yes"/>
      <point x="285" y="280"/>
      <point x="288" y="281"/>
      <point x="285" y="283" type="curve" smooth="yes"/>
      <point x="243" y="300"/>
      <point x="177" y="348"/>
      <point x="177" y="414" type="curve" smooth="yes"/>
      <point x="177" y="472"/>
      <point x="190" y="519"/>
      <point x="190" y="587" type="curve" smooth="yes"/>
      <point x="190" y="660"/>
      <point x="125" y="688"/>
      <point x="61" y="688" type="curve" smooth="yes"/>
      <point x="50" y="688"/>
      <point x="35" y="689"/>
      <point x="35" y="700" type="curve" smooth="yes"/>
      <point x="35" y="709"/>
      <point x="44" y="715"/>
      <point x="53" y="715" type="curve" smooth="yes"/>
      <point x="147" y="715"/>
      <point x="255" y="676"/>
      <point x="255" y="582" type="curve" smooth="yes"/>
      <point x="255" y="512"/>
      <point x="242" y="466"/>
      <point x="242" y="404" type="curve" smooth="yes"/>
      <point x="242" y="346"/>
      <point x="282" y="308"/>
      <point x="337" y="288" type="curve" smooth="yes"/>
      <point x="342" y="286"/>
      <point x="348" y="288"/>
      <point x="348" y="282" type="curve" smooth="yes"/>
      <point x="348" y="276"/>
      <point x="342" y="275"/>
      <point x="337" y="273" type="curve" smooth="yes"/>
      <point x="282" y="253"/>
      <point x="242" y="215"/>
      <point x="242" y="157" type="curve" smooth="yes"/>
      <point x="242" y="95"/>
      <point x="255" y="49"/>
      <point x="255" y="-21" type="curve" smooth="yes"/>
      <point x="255" y="-115"/>
      <point x="147" y="-154"/>
      <point x="53" y="-154" type="curve" smooth="yes"/>
      <point x="44" y="-154"/>
      <point x="35" y="-148"/>
      <point x="35" y="-139" type="curve" smooth="yes"/>
      <point x="35" y="-128"/>
      <point x="50" y="-127"/>
      <point x="61" y="-127" type="curve" smooth="yes"/>
      <point x="125" y="-127"/>
      <point x="190" y="-99"/>
      <point x="190" y="-26" type="curve" smooth="yes"/>
      <point x="190" y="42"/>
      <point x="177" y="89"/>
      <point x="177" y="147" type="curve" smooth="yes"/>
      <point x="177" y="213"/>
      <point x="250" y="270"/>
    </contour>
  </outline>
  <lib>
    <dict>
      <key>com.fontlab.hintData</key>
      <dict>
        <key>hhints</key>
        <array>
          <dict>
            <key>position</key>
            <integer>-154</integer>
            <key>width</key>
            <integer>27</integer>
          </dict>
          <dict>
            <key>position</key>
            <integer>688</integer>
            <key>width</key>
            <integer>27</integer>
          </dict>
        </array>
        <key>vhints</key>
        <array>
          <dict>
            <key>position</key>
            <integer>177</integer>
            <key>width</key>
            <integer>65</integer>
          </dict>
          <dict>
            <key>position</key>
            <integer>190</integer>
            <key>width</key>
            <integer>65</integer>
          </dict>
        </array>
      </dict>
    </dict>
  </lib>
</glyph>
