<?xml version="1.0" encoding="UTF-8" standalone="no"?>
<svg
   xmlns:dc="http://purl.org/dc/elements/1.1/"
   xmlns:cc="http://creativecommons.org/ns#"
   xmlns:rdf="http://www.w3.org/1999/02/22-rdf-syntax-ns#"
   xmlns:svg="http://www.w3.org/2000/svg"
   xmlns="http://www.w3.org/2000/svg"
   enable-background="new"
   id="svg8"
   viewBox="0 0 584.996872083 245.924379562"
   height="929.47797px"
   width="2211.0118px"
   version="1.1">
  <defs
     id="defs40" />
  <metadata
     id="metadata5">
    <rdf:RDF>
      <cc:Work
         rdf:about="">
        <dc:format>image/svg+xml</dc:format>
        <dc:type
           rdf:resource="http://purl.org/dc/dcmitype/StillImage" />
        <dc:title />
      </cc:Work>
    </rdf:RDF>
  </metadata>
  <g
     id="g37"
     transform="matrix(1.000000,0.000000,0.000000,1.000000,2012.153393,-6324.603175)">
    <path
       style="fill:#000000;fill-opacity:1;stroke:none;stroke-width:3.16499996;stroke-miterlimit:4;stroke-dasharray:none;stroke-dashoffset:15.61700821;stroke-opacity:1"
       id="path2112"
       d="m -1994.3425,6517.6949 c 11.0053,-4.7153 22.2197,-8.9518 33.3626,-13.3365 28.4812,-11.0665 56.8305,-22.4615 85.2032,-33.8014 38.7667,-15.347 77.6551,-30.4114 116.6139,-45.2676 34.835,-13.5351 70.177,-25.5944 105.8966,-36.5545 28.7576,-8.5431 57.3563,-17.5939 85.7178,-27.3713 20.6583,-7.0758 41.1683,-14.5688 61.7093,-21.9745 13.7881,-5.2402 27.9901,-9.1894 42.13,-13.3242 37.0085,-10.81 52.2961,41.5279 15.2876,52.3379 v 0 c -13.0638,3.8119 -26.193,7.4254 -38.9255,12.2797 -20.7833,7.4923 -41.5353,15.0728 -62.4372,22.2311 -28.9523,9.9731 -58.1378,19.232 -87.4932,27.9492 -34.5645,10.5976 -68.7577,22.272 -102.462,35.3746 -38.6899,14.7464 -77.3046,29.7143 -115.8027,44.9509 -28.463,11.3743 -56.9017,22.8062 -85.4727,33.9083 -10.4101,4.0963 -20.8919,8.044 -31.183,12.4238 -35.232,15.6586 -57.3766,-34.1669 -22.1447,-49.8255 z" />
  </g>
</svg>
