<?xml version="1.0" encoding="UTF-8" standalone="no"?>
<svg
   xmlns:dc="http://purl.org/dc/elements/1.1/"
   xmlns:cc="http://creativecommons.org/ns#"
   xmlns:rdf="http://www.w3.org/1999/02/22-rdf-syntax-ns#"
   xmlns:svg="http://www.w3.org/2000/svg"
   xmlns="http://www.w3.org/2000/svg"
   enable-background="new"
   id="svg8"
   viewBox="0 0 861.842928542 234.666247604"
   height="886.92755px"
   width="3257.3591px"
   version="1.1">
  <defs
     id="defs56" />
  <metadata
     id="metadata5">
    <rdf:RDF>
      <cc:Work
         rdf:about="">
        <dc:format>image/svg+xml</dc:format>
        <dc:type
           rdf:resource="http://purl.org/dc/dcmitype/StillImage" />
        <dc:title />
      </cc:Work>
    </rdf:RDF>
  </metadata>
  <g
     id="g53"
     transform="matrix(1.000000,0.000000,0.000000,1.000000,2010.249054,-7140.479485)">
    <path
       style="fill:#000000;fill-opacity:1;stroke:none;stroke-width:3.16499996;stroke-miterlimit:4;stroke-dasharray:none;stroke-dashoffset:15.61700821;stroke-opacity:1"
       id="path2116"
       d="m -1981.3328,7320.6205 c -0.2562,-0.01 -1.0227,0 -0.7684,-0.029 5.7271,-0.7296 11.4828,-1.3706 17.217,-2.0826 19.2343,-2.962 38.2454,-7.2372 57.2724,-11.2897 34.1178,-6.9086 68.2085,-13.9418 102.1989,-21.4542 38.9941,-9.9184 77.7437,-20.7767 116.5694,-31.3346 45.3684,-12.5503 90.9659,-24.2479 136.5688,-35.9123 40.9815,-10.3879 82.1362,-20.0453 123.4207,-29.1476 33.4641,-7.1614 66.9914,-14.0103 100.5564,-20.6804 26.5199,-4.6675 52.9542,-9.7894 79.3959,-14.8752 18.1777,-3.691 36.466,-6.7889 54.6829,-10.2723 7.9396,-1.5658 4.1369,-0.7983 11.4095,-2.2944 37.7654,-7.7626 48.7433,45.6458 10.9779,53.4083 v 0 c -7.8064,1.6033 -3.7576,0.7874 -12.1478,2.4409 -18.1976,3.4789 -36.4654,6.5771 -54.6242,10.261 -26.3321,5.0645 -52.6554,10.1733 -79.0672,14.811 -33.194,6.5959 -66.3506,13.3688 -99.4455,20.4476 -40.6916,8.9688 -81.2542,18.489 -121.6471,28.7254 -45.3372,11.5964 -90.6698,23.2225 -135.7732,35.7023 -39.6677,10.7864 -79.2512,21.9077 -119.1116,31.9608 -34.1266,7.54 -68.3511,14.6126 -102.6064,21.5427 -20.5615,4.3788 -41.1089,9 -61.9164,12.0708 -7.7064,0.9554 -15.3932,2.21 -23.162,2.5268 -38.555,0 -38.555,-54.5249 0,-54.5249 z" />
  </g>
</svg>
