<?xml version="1.0" encoding="UTF-8" standalone="no"?>
<svg
   xmlns:dc="http://purl.org/dc/elements/1.1/"
   xmlns:cc="http://creativecommons.org/ns#"
   xmlns:rdf="http://www.w3.org/1999/02/22-rdf-syntax-ns#"
   xmlns:svg="http://www.w3.org/2000/svg"
   xmlns="http://www.w3.org/2000/svg"
   xmlns:sodipodi="http://sodipodi.sourceforge.net/DTD/sodipodi-0.dtd"
   xmlns:inkscape="http://www.inkscape.org/namespaces/inkscape"
   id="svg8"
   viewBox="0 0 159.60601 264.58334"
   height="1000"
   width="603.23529"
   version="1.1"
   sodipodi:docname="chelou08-plain.svg"
   inkscape:version="0.92.4 (5da689c313, 2019-01-14)">
  <sodipodi:namedview
     pagecolor="#ffffff"
     bordercolor="#666666"
     borderopacity="1"
     objecttolerance="10"
     gridtolerance="10"
     guidetolerance="10"
     inkscape:pageopacity="0"
     inkscape:pageshadow="2"
     inkscape:window-width="768"
     inkscape:window-height="480"
     id="namedview7"
     showgrid="false"
     inkscape:zoom="0.7829622"
     inkscape:cx="133.27408"
     inkscape:cy="234.01443"
     inkscape:window-x="0"
     inkscape:window-y="0"
     inkscape:window-maximized="0"
     inkscape:current-layer="svg8" />
  <defs
     id="defs70" />
  <metadata
     id="metadata5">
    <rdf:RDF>
      <cc:Work
         rdf:about="">
        <dc:format>image/svg+xml</dc:format>
        <dc:type
           rdf:resource="http://purl.org/dc/dcmitype/StillImage" />
        <dc:title />
      </cc:Work>
    </rdf:RDF>
  </metadata>
  <g
     id="g67"
     transform="translate(-1518.5667,-1484.1611)">
    <path
       id="path909"
       d="m 1567.7506,1675.9271 c 0.2488,-1.3927 -0.4128,-2.8346 -1.4705,-3.2043 -1.0575,-0.3698 -1.9226,0.078 -1.9226,0.9939 0,0.9164 -0.6702,1.6663 -1.4899,1.6663 -0.8189,0 -1.1208,-0.9613 -0.6702,-2.1361 1.2015,-3.1309 -11.3697,-4.2607 -15.9555,-1.434 -4.0908,2.5215 -6.4932,1.5326 -6.4932,-2.6729 0,-1.6419 -0.6155,-2.9853 -1.3688,-2.9853 -0.7527,0 -2.8466,-2.9415 -4.6529,-6.5367 -1.8065,-3.5952 -5.3434,-10.3296 -7.8597,-14.9655 -2.8475,-5.246 -4.5752,-10.6893 -4.5752,-14.4152 0,-5.0471 -0.3487,-5.6969 -2.2236,-4.141 -1.223,1.015 -0.1324,-2.0152 2.423,-6.7337 6.1715,-11.3944 18.8662,-22.9535 60.5608,-55.1432 7.4245,-5.7319 13.8441,-10.0765 14.2659,-9.6546 0.4215,0.4218 -1.1531,3.2845 -3.5001,6.3615 -3.5856,4.7009 -3.8041,5.4675 -1.3681,4.799 9.8521,-2.7037 11.2957,-2.7073 10.2667,-0.026 -0.8343,2.1748 -0.1862,2.0447 3.739,-0.75 5.6609,-4.0309 6.8048,-4.2161 5.5306,-0.8955 -0.8248,2.1493 -0.4801,2.2326 2.5409,0.6156 1.9411,-1.0389 3.0603,-1.1674 2.5175,-0.289 -0.5377,0.8698 0.5204,1.804 2.3521,2.076 3.0728,0.4563 2.8737,0.9361 -2.5816,6.221 -3.2512,3.1497 -5.4242,6.2138 -4.8288,6.8091 0.5953,0.5954 3.0147,-0.7688 5.3765,-3.0315 3.1543,-3.022 4.7485,-3.6594 6.0064,-2.4015 1.258,1.258 2.6376,1.0646 5.1979,-0.7287 4.3938,-3.0775 8.3172,-0.7024 5.998,3.6311 -1.0971,2.05 -0.8584,2.9984 0.9275,3.6836 4.2406,1.6273 5.8861,1.0024 11.5842,-4.3992 5.9089,-5.6015 7.4874,-5.5794 7.4874,0.1043 0,4.6064 1.9484,5.6296 5.5411,2.9101 9.8366,-7.4457 2.246,6.1995 -13.6026,24.4527 -6.9862,8.046 -14.1927,16.5929 -16.0149,18.9929 l -3.3127,4.3637 8.6959,-1.0885 c 16.9925,-2.1271 27.213,-1.6041 30.0566,1.5379 2.383,2.6333 2.3941,2.9696 0.1266,3.8397 -1.3667,0.5244 -3.7047,0.3006 -5.1956,-0.4972 -1.7656,-0.945 -6.1499,-0.7525 -12.5774,0.5521 -5.4267,1.1015 -15.213,2.8898 -21.7471,3.9741 -6.5342,1.0842 -11.5805,2.4565 -11.2139,3.0497 0.6404,1.0363 3.9949,0.6863 27.7083,-2.8911 17.4132,-2.6268 36.1441,-1.8062 36.1441,1.5834 0,0.7402 -2.5955,1.4277 -5.7677,1.5277 l -5.7677,0.1818 4.6142,1.2999 c 3.0221,0.8513 -0.5646,1.0961 -10.397,0.7094 -10.4471,-0.411 -14.7004,-0.087 -13.9892,1.0628 0.5924,0.9587 0.3025,1.2088 -0.6904,0.5954 -1.6359,-1.011 -25.7994,1.336 -31.4694,3.0566 -1.4927,0.453 -2.317,1.4659 -1.8318,2.2509 0.4849,0.785 -0.6587,1.4273 -2.5412,1.4273 -1.8826,0 -3.0332,0.39 -2.5564,0.8668 0.4763,0.4767 7.7246,0.011 16.1064,-1.0352 11.536,-1.4397 17.2749,-1.4812 23.6138,-0.1705 5.5478,1.147 6.2977,1.5042 2.2221,1.0581 -7.205,-0.7885 -31.6612,2.4384 -30.6674,4.0465 0.3735,0.6048 -0.6491,0.7522 -2.2731,0.3274 -1.6241,-0.4247 -4.2205,-0.037 -5.7698,0.8657 -2.6743,1.5548 -2.6611,1.6472 0.2593,1.8234 1.8151,0.1093 0.8699,0.775 -2.3071,1.6237 -13.906,3.7155 -26.1467,8.0203 -26.1467,9.1952 0,0.7133 -1.0382,0.8986 -2.3071,0.4116 -1.2688,-0.4869 -2.3071,-0.1997 -2.3071,0.638 0,0.8377 -1.5572,2.0549 -3.4605,2.7049 -3.2308,1.1031 -3.1541,1.2215 1.1535,1.7814 2.5377,0.33 9.0301,-0.8133 14.4272,-2.5403 5.3972,-1.727 10.9342,-3.0899 12.3044,-3.0286 3.4969,0.1566 -27.4847,10.4467 -31.7976,10.5612 -2.4604,0.065 -3.3913,-0.6728 -3.0762,-2.4384 z"
       style="fill:#000000;stroke-width:1.53804469"
       inkscape:connector-curvature="0" />
  </g>
</svg>
