<?xml version="1.0" encoding="UTF-8"?>
<glyph name="ccedilla" format="1">
  <advance width="377"/>
  <unicode hex="00E7"/>
  <outline>
    <contour>
      <point x="151" y="-129" type="curve" smooth="yes"/>
      <point x="144" y="-129"/>
      <point x="133" y="-123"/>
      <point x="133" y="-114" type="curve" smooth="yes"/>
      <point x="133" y="-111"/>
      <point x="135" y="-108"/>
      <point x="138" y="-104" type="curve" smooth="yes"/>
      <point x="209" y="-14" type="line"/>
      <point x="206" y="-14" type="line" smooth="yes"/>
      <point x="105" y="-14"/>
      <point x="35" y="77"/>
      <point x="35" y="180" type="curve" smooth="yes"/>
      <point x="35" y="303"/>
      <point x="123" y="413"/>
      <point x="246" y="413" type="curve" smooth="yes"/>
      <point x="289" y="413"/>
      <point x="336" y="402"/>
      <point x="366" y="365" type="curve" smooth="yes"/>
      <point x="369" y="361"/>
      <point x="371" y="357"/>
      <point x="371" y="353" type="curve" smooth="yes"/>
      <point x="371" y="336"/>
      <point x="343" y="319"/>
      <point x="333" y="319" type="curve" smooth="yes"/>
      <point x="324" y="319"/>
      <point x="313" y="324"/>
      <point x="308" y="329" type="curve" smooth="yes"/>
      <point x="275" y="365"/>
      <point x="264" y="376"/>
      <point x="214" y="376" type="curve" smooth="yes"/>
      <point x="141" y="376"/>
      <point x="104" y="299"/>
      <point x="104" y="226" type="curve" smooth="yes"/>
      <point x="104" y="130"/>
      <point x="167" y="38"/>
      <point x="263" y="38" type="curve" smooth="yes"/>
      <point x="305" y="38"/>
      <point x="325" y="54"/>
      <point x="351" y="88" type="curve" smooth="yes"/>
      <point x="354" y="91"/>
      <point x="357" y="93"/>
      <point x="360" y="93" type="curve" smooth="yes"/>
      <point x="366" y="93"/>
      <point x="372" y="86"/>
      <point x="372" y="79" type="curve" smooth="yes"/>
      <point x="372" y="47"/>
      <point x="314" y="2"/>
      <point x="243" y="-11" type="curve"/>
      <point x="218" y="-43" type="line" smooth="yes"/>
      <point x="216" y="-45"/>
      <point x="214" y="-49"/>
      <point x="214" y="-51" type="curve" smooth="yes"/>
      <point x="214" y="-57"/>
      <point x="221" y="-62"/>
      <point x="225" y="-63" type="curve" smooth="yes"/>
      <point x="257" y="-77"/>
      <point x="286" y="-106"/>
      <point x="286" y="-139" type="curve" smooth="yes"/>
      <point x="286" y="-219"/>
      <point x="197" y="-274"/>
      <point x="161" y="-274" type="curve" smooth="yes"/>
      <point x="134" y="-274"/>
      <point x="131" y="-252"/>
      <point x="131" y="-233" type="curve" smooth="yes"/>
      <point x="131" y="-219"/>
      <point x="140" y="-214"/>
      <point x="144" y="-214" type="curve" smooth="yes"/>
      <point x="151" y="-214"/>
      <point x="164" y="-225"/>
      <point x="197" y="-225" type="curve" smooth="yes"/>
      <point x="223" y="-225"/>
      <point x="236" y="-206"/>
      <point x="236" y="-180" type="curve" smooth="yes"/>
      <point x="236" y="-144"/>
      <point x="212" y="-123"/>
      <point x="177" y="-123" type="curve" smooth="yes"/>
      <point x="164" y="-123"/>
      <point x="158" y="-129"/>
    </contour>
  </outline>
  <lib>
    <dict>
      <key>com.fontlab.hintData</key>
      <dict>
        <key>hhints</key>
        <array>
          <dict>
            <key>position</key>
            <integer>-274</integer>
            <key>width</key>
            <integer>49</integer>
          </dict>
          <dict>
            <key>position</key>
            <integer>-14</integer>
            <key>width</key>
            <integer>52</integer>
          </dict>
          <dict>
            <key>position</key>
            <integer>376</integer>
            <key>width</key>
            <integer>37</integer>
          </dict>
        </array>
        <key>vhints</key>
        <array>
          <dict>
            <key>position</key>
            <integer>35</integer>
            <key>width</key>
            <integer>69</integer>
          </dict>
          <dict>
            <key>position</key>
            <integer>236</integer>
            <key>width</key>
            <integer>50</integer>
          </dict>
        </array>
      </dict>
    </dict>
  </lib>
</glyph>
