<?xml version="1.0" encoding="UTF-8"?>
<glyph name="uni00B9" format="1">
  <advance width="300"/>
  <unicode hex="00B9"/>
  <outline>
    <contour>
      <point x="178" y="784" type="curve" smooth="yes"/>
      <point x="184" y="784"/>
      <point x="188" y="778"/>
      <point x="187" y="770" type="curve" smooth="yes"/>
      <point x="185" y="757"/>
      <point x="183" y="738"/>
      <point x="183" y="716" type="curve" smooth="yes"/>
      <point x="183" y="671"/>
      <point x="182" y="617"/>
      <point x="182" y="589" type="curve" smooth="yes"/>
      <point x="182" y="559"/>
      <point x="182" y="534"/>
      <point x="183" y="510" type="curve" smooth="yes"/>
      <point x="185" y="471"/>
      <point x="189" y="470"/>
      <point x="233" y="464" type="curve" smooth="yes"/>
      <point x="241" y="463"/>
      <point x="245" y="457"/>
      <point x="245" y="451" type="curve" smooth="yes"/>
      <point x="245" y="445"/>
      <point x="241" y="439"/>
      <point x="233" y="439" type="curve" smooth="yes"/>
      <point x="176" y="439"/>
      <point x="183" y="444"/>
      <point x="151" y="444" type="curve" smooth="yes"/>
      <point x="119" y="444"/>
      <point x="123" y="439"/>
      <point x="69" y="439" type="curve" smooth="yes"/>
      <point x="62" y="439"/>
      <point x="58" y="446"/>
      <point x="58" y="453" type="curve" smooth="yes"/>
      <point x="58" y="459"/>
      <point x="61" y="464"/>
      <point x="69" y="464" type="curve" smooth="yes"/>
      <point x="95" y="466"/>
      <point x="123" y="469"/>
      <point x="123" y="510" type="curve" smooth="yes"/>
      <point x="123" y="663" type="line" smooth="yes"/>
      <point x="123" y="690"/>
      <point x="86" y="704"/>
      <point x="69" y="710" type="curve" smooth="yes"/>
      <point x="61" y="713"/>
      <point x="58" y="718"/>
      <point x="58" y="723" type="curve" smooth="yes"/>
      <point x="58" y="730"/>
      <point x="63" y="736"/>
      <point x="68" y="737" type="curve" smooth="yes"/>
      <point x="119" y="742"/>
      <point x="172" y="784"/>
    </contour>
  </outline>
  <lib>
    <dict>
      <key>com.fontlab.hintData</key>
      <dict>
        <key>hhints</key>
        <array>
          <dict>
            <key>position</key>
            <integer>439</integer>
            <key>width</key>
            <integer>25</integer>
          </dict>
        </array>
        <key>vhints</key>
        <array>
          <dict>
            <key>position</key>
            <integer>123</integer>
            <key>width</key>
            <integer>60</integer>
          </dict>
        </array>
      </dict>
    </dict>
  </lib>
</glyph>
