<?xml version="1.0" encoding="UTF-8" standalone="no"?>
<svg
   xmlns:dc="http://purl.org/dc/elements/1.1/"
   xmlns:cc="http://creativecommons.org/ns#"
   xmlns:rdf="http://www.w3.org/1999/02/22-rdf-syntax-ns#"
   xmlns:svg="http://www.w3.org/2000/svg"
   xmlns="http://www.w3.org/2000/svg"
   enable-background="new"
   id="svg8"
   viewBox="0 0 972.214950833 242.318854854"
   height="915.85079px"
   width="3674.5132px"
   version="1.1">
  <defs
     id="defs24" />
  <metadata
     id="metadata5">
    <rdf:RDF>
      <cc:Work
         rdf:about="">
        <dc:format>image/svg+xml</dc:format>
        <dc:type
           rdf:resource="http://purl.org/dc/dcmitype/StillImage" />
        <dc:title />
      </cc:Work>
    </rdf:RDF>
  </metadata>
  <g
     id="g21"
     transform="matrix(1.000000,0.000000,0.000000,1.000000,-2172.785030,-7573.040956)">
    <path
       style="fill:#000000;fill-opacity:1;stroke:none;stroke-width:3.16499996;stroke-miterlimit:4;stroke-dasharray:none;stroke-dashoffset:15.61700821;stroke-opacity:1"
       id="path2128"
       d="m 2197.5694,7761.0227 c 7.8672,-1.2065 15.7214,-2.4953 23.5768,-3.7759 24.9703,-4.0806 49.934,-8.201 74.8972,-12.3248 39.6752,-6.5418 79.3535,-13.0651 119.0287,-19.6075 42.8338,-7.0752 85.6787,-14.0827 128.5229,-21.0936 38.5039,-6.2783 77.006,-12.563 115.4214,-19.3635 38.6372,-6.943 76.8312,-16.0716 114.9054,-25.5702 34.1238,-8.5971 68.0767,-17.8511 102.0456,-27.0359 27.5495,-7.4485 55.1003,-14.8923 82.6659,-22.2813 20.474,-5.5005 40.9787,-10.8839 61.526,-16.1042 15.2085,-3.8396 30.4469,-7.5591 45.6999,-11.2178 11.2977,-2.7612 22.6631,-5.2244 34.0619,-7.5298 8.4582,-1.5015 3.9756,-0.8421 13.4612,-1.8846 38.3651,-3.8208 43.7684,50.4357 5.4033,54.2565 v 0 c -4.985,0.3839 -2.2921,0.067 -8.0626,1.0724 -10.758,2.1727 -21.4837,4.499 -32.1456,7.1062 -15.0172,3.6023 -30.0201,7.2641 -44.9937,11.0437 -20.3163,5.1604 -40.5897,10.4854 -60.8335,15.9234 -27.5273,7.3787 -55.0397,14.8122 -82.551,22.2504 -34.3134,9.2779 -68.6114,18.624 -103.0821,27.3053 -39.2962,9.7988 -78.7188,19.2026 -118.5971,26.3562 -38.6483,6.84 -77.3824,13.168 -116.1196,19.4823 -42.8223,7.0075 -85.6453,14.0113 -128.457,21.0828 -39.67,6.5415 -79.3432,13.064 -119.0132,19.6051 -25.0014,4.1301 -50.0034,8.2568 -75.012,12.3436 -8.0251,1.3083 -16.0491,2.6241 -24.0864,3.8563 -38.1097,5.8425 -46.3721,-48.0528 -8.2624,-53.8951 z" />
  </g>
</svg>
