<?xml version="1.0" encoding="UTF-8" standalone="no"?>
<svg
   xmlns:dc="http://purl.org/dc/elements/1.1/"
   xmlns:cc="http://creativecommons.org/ns#"
   xmlns:rdf="http://www.w3.org/1999/02/22-rdf-syntax-ns#"
   xmlns:svg="http://www.w3.org/2000/svg"
   xmlns="http://www.w3.org/2000/svg"
   id="svg8"
   viewBox="0 0 154.857571708 142.130703271"
   height="537.18691px"
   width="585.28846px"
   version="1.1">
  <defs
     id="defs432" />
  <metadata
     id="metadata5">
    <rdf:RDF>
      <cc:Work
         rdf:about="">
        <dc:format>image/svg+xml</dc:format>
        <dc:type
           rdf:resource="http://purl.org/dc/dcmitype/StillImage" />
        <dc:title />
      </cc:Work>
    </rdf:RDF>
  </metadata>
  <g
     id="g429"
     transform="matrix(1.000000,0.000000,0.000000,1.000000,2234.712770,153.641678)">
    <path
       id="path869"
       d="m -2210.8895,-13.610034 c -2.5379,-1.12019 -5.7594,-3.342487 -7.1593,-4.938422 -5.2469,-5.982177 -12.2609,-22.369557 -14.4327,-33.720271 -3.8148,-19.93829 -3.5656,-21.022214 7.365,-32.030697 13.9061,-14.005167 23.7394,-21.686816 48.8329,-38.147716 33.4931,-21.97085 48.9744,-30.92825 51.668,-29.8946 1.3125,0.50368 3.6967,0.21436 5.2983,-0.64257 2.4108,-1.29026 3.2815,-0.82625 5.0606,2.69711 1.182,2.34045 1.8244,5.16775 1.4278,6.28289 -0.3965,1.11509 0.217,1.89824 1.3646,1.7403 4.2071,-0.57919 5.7448,0.14452 6.6998,3.15344 0.5367,1.69185 1.9129,3.0761 3.0575,3.0761 1.1446,0 2.5433,2.10364 3.108,4.67476 0.819,3.73064 1.624,4.48522 3.9839,3.73619 2.3852,-0.757 3.1452,0 3.9283,3.91668 0.5339,2.6704 1.9069,5.21437 3.0507,5.65321 1.1437,0.43894 1.7232,1.37459 1.2877,2.07922 -0.4359,0.70468 0.8478,2.51766 2.8507,4.02879 l 3.6425,2.74759 -7.0714,7.0325 c -3.8895,3.867928 -8.8844,9.422701 -11.1,12.344032 -2.3119,3.0483 -12.3918,10.472142 -23.6563,17.422904 -32.4611,20.030091 -51.7248,33.783432 -66.136,47.217726 -8.9515,8.344674 -15.9829,13.791199 -17.6453,13.66784 -0.4465,-0.0332 -2.8876,-0.976721 -5.4253,-2.096955 z"
       style="fill:#000000;stroke-width:1.53804469" />
  </g>
</svg>
