<?xml version="1.0" encoding="UTF-8" standalone="no"?>
<svg
   xmlns:dc="http://purl.org/dc/elements/1.1/"
   xmlns:cc="http://creativecommons.org/ns#"
   xmlns:rdf="http://www.w3.org/1999/02/22-rdf-syntax-ns#"
   xmlns:svg="http://www.w3.org/2000/svg"
   xmlns="http://www.w3.org/2000/svg"
   id="svg8"
   viewBox="0 0 154.550213187 105.325431229"
   height="398.08037px"
   width="584.12679px"
   version="1.1">
  <defs
     id="defs384" />
  <metadata
     id="metadata5">
    <rdf:RDF>
      <cc:Work
         rdf:about="">
        <dc:format>image/svg+xml</dc:format>
        <dc:type
           rdf:resource="http://purl.org/dc/dcmitype/StillImage" />
        <dc:title />
      </cc:Work>
    </rdf:RDF>
  </metadata>
  <g
     id="g381"
     transform="matrix(1.000000,0.000000,0.000000,1.000000,696.934884,-132.573091)">
    <path
       id="path889"
       d="m -668.22997,236.43777 c -6.30318,-1.89199 -8.35863,-4.01283 -17.11717,-17.66206 -15.43569,-24.05462 -15.44894,-37.75312 -0.0479,-52.09383 4.20546,-3.91648 8.16638,-7.12089 8.8021,-7.12089 0.63565,0 7.40941,-3.08927 15.05268,-6.86506 21.18795,-10.46683 40.43131,-17.73947 47.04866,-17.78124 3.27881,-0.0218 9.01713,-0.74193 12.7519,-1.60282 3.7347,-0.86089 7.1953,-0.98816 7.69025,-0.28278 0.49451,0.70527 3.66816,1.35289 7.05193,1.43919 5.93992,0.15144 13.64717,3.10735 14.29623,5.48278 0.17304,0.63449 0.31498,1.84563 0.31498,2.69161 0,0.84588 1.21129,1.58187 2.69157,1.63553 1.93612,0.0702 1.64709,0.51493 -1.02967,1.58493 -5.5144,2.20407 -1.65401,5.15027 6.81243,5.19912 6.58347,0.0387 6.73162,0.13832 3.65503,2.46856 -2.78029,2.10597 -2.91425,2.72134 -1.00771,4.62785 1.20952,1.20947 1.93282,2.99708 1.60772,3.97256 -0.40807,1.22413 1.45976,1.55809 6.02867,1.07798 l 6.61971,-0.69567 -7.47939,3.0552 c -9.77649,3.99361 -10.90358,5.41204 -3.28686,4.13669 4.7208,-0.79055 5.6154,-0.62939 3.8451,0.69234 -1.79426,1.33966 -1.02516,1.54476 3.46059,0.92282 4.36037,-0.60451 5.7677,-0.2601 5.7677,1.4107 0,1.21571 0.86512,2.2112 1.92255,2.21224 1.05736,0 -0.0863,1.73133 -2.54631,3.84513 -3.80767,3.27461 -4.03533,3.85594 -1.538,3.92911 1.61187,0.0471 -0.18327,1.39287 -3.99048,2.9902 -3.80662,1.59732 -6.22906,2.94743 -5.38314,3.0003 2.81928,0.17597 -7.58837,6.17707 -15.01054,8.65505 -4.0263,1.34416 -7.98049,3.67733 -8.78715,5.18479 -0.80655,1.50741 -7.54841,5.34437 -14.98134,8.52654 -7.43293,3.18211 -23.31799,10.54249 -35.3,16.35627 -22.31067,10.82549 -27.63781,12.09109 -37.912,9.00706 z"
       style="fill:#000000;stroke-width:1.53804469" />
  </g>
</svg>
