<?xml version="1.0" encoding="UTF-8" standalone="no"?>
<svg
   xmlns:dc="http://purl.org/dc/elements/1.1/"
   xmlns:cc="http://creativecommons.org/ns#"
   xmlns:rdf="http://www.w3.org/1999/02/22-rdf-syntax-ns#"
   xmlns:svg="http://www.w3.org/2000/svg"
   xmlns="http://www.w3.org/2000/svg"
   id="svg8"
   viewBox="0 0 119.363701667 84.8284355625"
   height="320.61141px"
   width="451.1384px"
   version="1.1">
  <defs
     id="defs40" />
  <metadata
     id="metadata5">
    <rdf:RDF>
      <cc:Work
         rdf:about="">
        <dc:format>image/svg+xml</dc:format>
        <dc:type
           rdf:resource="http://purl.org/dc/dcmitype/StillImage" />
        <dc:title />
      </cc:Work>
    </rdf:RDF>
  </metadata>
  <g
     id="g37"
     transform="matrix(1.000000,0.000000,0.000000,1.000000,1321.440027,-823.349261)">
    <path
       id="path1011"
       d="m -1289.6008,905.90427 c -5.1722,-2.6617 -8.9227,-6.8667 -12.3788,-13.87887 -1.2842,-2.6052 -5.0821,-7.68323 -8.44,-11.28428 -3.358,-3.60105 -6.545,-8.39059 -7.0823,-10.64345 -0.5367,-2.25292 -1.6907,-5.00041 -2.5632,-6.10553 -2.0015,-2.53516 -1.7481,-17.75771 0.3073,-18.44273 2.2909,-0.76334 13.0764,-9.53982 11.7239,-9.53982 -0.6424,0 -0.386,-0.94387 0.5713,-2.09645 1.2095,-1.45742 7.2447,-2.34061 19.7984,-2.89741 14.0622,-0.62318 20.3725,-1.65509 28.5154,-4.66108 9.8404,-3.63256 16.4588,-4.00739 16.4588,-0.93233 0,0.74699 1.3195,1.35863 2.9321,1.35863 2.2275,0 2.7278,0.78158 2.0821,3.25069 -0.7759,2.96587 -0.5425,3.0858 2.6654,1.36913 1.9335,-1.03478 5.5541,-2.46604 8.0455,-3.18058 3.933,-1.12792 4.2768,-0.9941 2.6087,1.01575 -1.5967,1.92401 -1.3591,2.46179 1.408,3.18539 4.1765,1.0923 4.2022,2.30261 0.1027,4.86253 -4.9069,3.06451 -2.3418,3.91167 3.1871,1.05251 4.7379,-2.45004 4.8195,-2.43596 3.219,0.55403 -2.1937,4.09909 -2.079,4.80857 0.7777,4.80857 1.491,0 2.2066,1.03325 1.8643,2.69156 -0.3084,1.49369 1.3702,4.52282 3.7716,6.80615 2.7557,2.61992 3.7135,4.49389 2.6371,5.15918 -1.0802,0.66733 -0.4715,1.8985 1.6861,3.40971 3.0797,2.15721 3.1459,2.49394 0.7527,3.8335 -2.4111,1.34923 -2.3661,1.6491 0.5531,3.69359 2.7271,1.91018 2.9087,2.69274 1.2831,5.52767 -1.0415,1.81636 -3.797,4.96225 -6.1234,6.99085 -2.3263,2.02863 -4.2427,4.83815 -4.2586,6.24335 -0.018,1.40511 -3.4636,4.63121 -7.6612,7.16894 -4.1977,2.5378 -7.6452,5.0592 -7.6612,5.6031 -0.048,1.757 -5.1108,3.0835 -20.0236,5.25 -19.6971,2.8616 -34.9873,2.7966 -40.7582,-0.1728 z"
       style="fill:#000000;stroke-width:1.53804469" />
  </g>
</svg>
