<?xml version="1.0" encoding="UTF-8" standalone="no"?>
<svg
   xmlns:dc="http://purl.org/dc/elements/1.1/"
   xmlns:cc="http://creativecommons.org/ns#"
   xmlns:rdf="http://www.w3.org/1999/02/22-rdf-syntax-ns#"
   xmlns:svg="http://www.w3.org/2000/svg"
   xmlns="http://www.w3.org/2000/svg"
   id="svg8"
   viewBox="0 0 171.111648187 108.219673917"
   height="409.01924px"
   width="646.72119px"
   version="1.1">
  <defs
     id="defs296" />
  <metadata
     id="metadata5">
    <rdf:RDF>
      <cc:Work
         rdf:about="">
        <dc:format>image/svg+xml</dc:format>
        <dc:type
           rdf:resource="http://purl.org/dc/dcmitype/StillImage" />
        <dc:title />
      </cc:Work>
    </rdf:RDF>
  </metadata>
  <g
     id="g293"
     transform="matrix(1.000000,0.000000,0.000000,1.000000,1472.247447,-248.161115)">
    <path
       id="path931"
       d="m -1453.2022,354.60176 c -4.2335,-3.41937 -10.9666,-14.13615 -9.9325,-15.80932 0.4935,-0.79916 0.29,-1.89483 -0.4523,-2.43464 -0.7431,-0.5399 -2.9889,-3.98836 -4.9911,-7.66327 -7.1404,-13.10543 -3.5682,-30.19973 8.1829,-39.15728 4.5263,-3.45034 14.6721,-7.58856 34.0216,-13.8767 15.1645,-4.92812 32.6532,-11.09181 38.8636,-13.69712 15.5032,-6.5037 41.4134,-13.97108 47.8812,-13.79941 2.9376,0.0779 6.1285,1.21838 7.0907,2.53426 0.9622,1.31593 2.5384,2.39252 3.5025,2.39252 0.9642,0 1.7531,0.99153 1.7531,2.20342 0,1.21194 1.3369,2.62779 2.9711,3.1465 1.6341,0.51865 4.7591,3.9939 6.9445,7.72291 2.1853,3.72896 5.2425,7.677 6.794,8.77341 2.8852,2.03909 9.4371,15.30469 9.4371,19.10747 0,1.16136 -0.6548,2.11157 -1.4542,2.11157 -0.7998,0 -2.357,1.90335 -3.4606,4.22958 -1.1035,2.32634 -4.2991,5.23825 -7.1011,6.47105 -3.5871,1.57811 -4.888,3.03141 -4.3965,4.91123 0.8334,3.18717 -2.8772,6.74764 -8.1963,7.86456 -19.6302,4.12182 -52.2127,15.33823 -78.4403,27.0027 -17.215,7.65624 -20.634,8.64053 -32.6932,9.412 -10.6388,0.6807 -14.0674,0.37711 -16.3239,-1.44544 z"
       style="fill:#000000;stroke-width:1.53804469" />
  </g>
</svg>
