<?xml version="1.0" encoding="UTF-8" standalone="no"?>
<svg
   xmlns:dc="http://purl.org/dc/elements/1.1/"
   xmlns:cc="http://creativecommons.org/ns#"
   xmlns:rdf="http://www.w3.org/1999/02/22-rdf-syntax-ns#"
   xmlns:svg="http://www.w3.org/2000/svg"
   xmlns="http://www.w3.org/2000/svg"
   id="svg8"
   viewBox="0 0 101.708063771 96.0032608125"
   height="362.84697px"
   width="384.40843px"
   version="1.1">
  <defs
     id="defs216" />
  <metadata
     id="metadata5">
    <rdf:RDF>
      <cc:Work
         rdf:about="">
        <dc:format>image/svg+xml</dc:format>
        <dc:type
           rdf:resource="http://purl.org/dc/dcmitype/StillImage" />
        <dc:title />
      </cc:Work>
    </rdf:RDF>
  </metadata>
  <g
     id="g213"
     transform="matrix(1.000000,0.000000,0.000000,1.000000,1389.352378,-403.945757)">
    <path
       id="path951"
       d="m -1354.1987,499.51862 c -4.4367,-0.96869 -6.3319,-2.81417 -15.9687,-15.54958 -10.016,-13.23627 -13.6243,-18.48726 -14.9147,-21.7041 -0.5089,-1.26892 -1.714,-3.94338 -2.6778,-5.94328 -2.7259,-5.6558 -1.8528,-14.84604 1.8585,-19.56421 11.893,-15.11936 24.984,-24.86576 34.8542,-25.94924 2.0036,-0.21987 5.3774,-1.53639 7.4972,-2.92545 5.2858,-3.46336 6.5576,-3.16651 3.0481,0.71153 -2.6302,2.90631 -2.1598,2.82774 4.6048,-0.76904 8.5516,-4.54685 13.2284,-5.11539 13.2284,-1.60818 0,1.31885 0.6299,2.00872 1.3993,1.53307 2.3239,-1.43631 6.5249,0.93099 5.6585,3.18876 -0.6538,1.703 2.5083,3.08923 4.093,1.79445 1.4992,-1.22502 6.7907,5.79659 6.1666,8.18297 -0.8699,3.32767 0.067,3.57979 4.4943,1.2101 2.4922,-1.33381 2.998,-1.25326 2.4137,0.38455 -1.1363,3.18509 1.6719,7.45426 4.2519,6.46421 1.4037,-0.53867 2.2836,0.0258 2.2836,1.46718 0,1.28888 -0.8047,2.61165 -1.7883,2.93951 -1.7069,0.56899 -3.3485,5.81244 -1.8197,5.81244 0.4033,0 2.1321,-0.74813 3.8408,-1.66267 3.859,-2.06525 5.0472,-1.05286 3.1292,2.66644 -0.8056,1.56275 -2.411,4.90806 -3.5671,7.43399 -2.0069,4.38475 -3.3182,6.26085 -9.4077,13.45977 -1.4804,1.75001 -2.6916,3.8057 -2.6916,4.56824 0,1.88175 -17.5924,22.51075 -23.6104,27.68574 -4.3005,3.69804 -7.7096,4.75947 -20.9929,6.53594 -1.2689,0.16979 -3.6913,0.007 -5.3832,-0.36289 z"
       style="fill:#000000;stroke-width:1.53804469" />
  </g>
</svg>
