<?xml version="1.0" encoding="UTF-8" standalone="no"?>
<svg
   xmlns:dc="http://purl.org/dc/elements/1.1/"
   xmlns:cc="http://creativecommons.org/ns#"
   xmlns:rdf="http://www.w3.org/1999/02/22-rdf-syntax-ns#"
   xmlns:svg="http://www.w3.org/2000/svg"
   xmlns="http://www.w3.org/2000/svg"
   id="svg8"
   viewBox="0 0 152.626618271 104.346972958"
   height="394.38226px"
   width="576.85651px"
   version="1.1">
  <defs
     id="defs448" />
  <metadata
     id="metadata5">
    <rdf:RDF>
      <cc:Work
         rdf:about="">
        <dc:format>image/svg+xml</dc:format>
        <dc:type
           rdf:resource="http://purl.org/dc/dcmitype/StillImage" />
        <dc:title />
      </cc:Work>
    </rdf:RDF>
  </metadata>
  <g
     id="g445"
     transform="matrix(1.000000,0.000000,0.000000,1.000000,1070.351899,96.321305)">
    <path
       id="path865"
       d="m -1040.5364,7.651414 c -5.7524,-0.77869 -10.261,-5.28595 -15.7423,-15.737289 -2.4401,-4.652568 -5.3183,-9.390005 -6.3961,-10.527537 -6.1056,-6.444192 -9.63,-23.584809 -6.5319,-31.768665 2.0332,-5.37137 13.565,-17.687508 16.5609,-17.687508 1.1264,0 4.7614,-1.3843 8.0777,-3.076096 3.3163,-1.691854 7.2684,-3.079474 8.7825,-3.083535 1.514,-0.0051 9.652,-3.118654 18.0842,-6.92123 15.8138,-7.131195 18.59764,-8.013189 16.9675,-5.375685 -1.4172,2.293145 -0.4657,2.069907 20.15069,-4.72569 18.32506,-6.040581 26.12955,-6.745462 19.68707,-1.778155 -2.72047,2.097551 -2.60257,2.186874 1.68953,1.279663 4.12173,-0.87114 4.32692,-0.749416 1.92255,1.140503 -3.86347,3.036865 -3.31606,4.244939 1.15357,2.545609 2.47226,-0.940012 3.8451,-0.926383 3.8451,0.03865 0,0.824965 -0.69227,1.499973 -1.53811,1.499973 -0.84592,0 -1.53801,0.692103 -1.53801,1.538077 0,0.845923 1.03815,1.538026 2.30703,1.538026 1.26898,0 2.30709,0.778599 2.30709,1.730293 0,1.102253 1.67476,1.395343 4.61413,0.807535 4.78218,-0.956459 6.43992,1.046618 2.20957,2.669949 -2.64903,1.016548 -1.51489,4.234834 1.36699,3.879077 0.99359,-0.122516 3.53693,-0.130246 5.65172,-0.01831 3.08713,0.165372 3.39029,0.504384 1.53801,1.720238 -2.05066,1.346246 -2.05066,1.682788 0,3.029034 1.26894,0.832948 3.17222,1.525094 4.22965,1.538026 2.42877,0.02921 2.50116,2.560466 0.11523,4.034931 -1.05659,0.65301 1.32957,2.031411 5.74483,3.318854 l 7.55197,2.202028 -4.20679,2.204164 c -4.04495,2.119397 -5.7073,5.182074 -2.81284,5.182074 0.76716,0 1.04602,1.330939 0.62025,2.957641 -0.48102,1.838199 -4.06135,4.292205 -9.45964,6.483241 -4.77746,1.939015 -10.46976,5.349967 -12.64966,7.579943 -4.93923,5.052766 -20.38117,14.115935 -41.42718,24.314363 -8.88222,4.304138 -19.95615,9.85613797 -24.60865,12.337738 -8.3366,4.44648 -19.0079,6.38306 -28.2672,5.12961 z"
       style="fill:#000000;stroke-width:1.53804469" />
  </g>
</svg>
