<?xml version="1.0" encoding="UTF-8" standalone="no"?>
<svg
   xmlns:dc="http://purl.org/dc/elements/1.1/"
   xmlns:cc="http://creativecommons.org/ns#"
   xmlns:rdf="http://www.w3.org/1999/02/22-rdf-syntax-ns#"
   xmlns:svg="http://www.w3.org/2000/svg"
   xmlns="http://www.w3.org/2000/svg"
   id="svg8"
   viewBox="0 0 4.92612071458 4.61412007917"
   height="17.439194px"
   width="18.618409px"
   version="1.1">
  <defs
     id="defs120" />
  <metadata
     id="metadata5">
    <rdf:RDF>
      <cc:Work
         rdf:about="">
        <dc:format>image/svg+xml</dc:format>
        <dc:type
           rdf:resource="http://purl.org/dc/dcmitype/StillImage" />
        <dc:title />
      </cc:Work>
    </rdf:RDF>
  </metadata>
  <g
     id="g117"
     transform="matrix(1.000000,0.000000,0.000000,1.000000,2366.387957,-760.645630)">
    <path
       id="path983"
       d="m -2365.4631,762.95266 c -1.0681,-1.2869 -1.2346,-2.30702 -0.3764,-2.30702 0.846,0 2.3997,1.03815 3.4527,2.30702 1.0682,1.28704 1.2347,2.3071 0.3765,2.3071 -0.846,0 -2.3998,-1.03824 -3.4528,-2.3071 z"
       style="fill:#000000;stroke-width:1.53804469" />
  </g>
</svg>
