<?xml version="1.0" encoding="UTF-8" standalone="no"?>
<svg
   xmlns:dc="http://purl.org/dc/elements/1.1/"
   xmlns:cc="http://creativecommons.org/ns#"
   xmlns:rdf="http://www.w3.org/1999/02/22-rdf-syntax-ns#"
   xmlns:svg="http://www.w3.org/2000/svg"
   xmlns="http://www.w3.org/2000/svg"
   id="svg8"
   viewBox="0 0 134.489975812 45.7677228958"
   height="172.98037px"
   width="508.30857px"
   version="1.1">
  <defs
     id="defs112" />
  <metadata
     id="metadata5">
    <rdf:RDF>
      <cc:Work
         rdf:about="">
        <dc:format>image/svg+xml</dc:format>
        <dc:type
           rdf:resource="http://purl.org/dc/dcmitype/StillImage" />
        <dc:title />
      </cc:Work>
    </rdf:RDF>
  </metadata>
  <g
     id="g109"
     transform="matrix(1.000000,0.000000,0.000000,1.000000,1621.292186,-1469.310260)">
    <path
       id="path1105"
       d="m -1578.3157,1513.8417 c -22.085,-1.9587 -40.7549,-7.5493 -42.7729,-12.8083 -0.4274,-1.1133 -0.1596,-2.9995 0.5953,-4.1917 0.7547,-1.1922 1.3828,-4.749 1.3958,-7.9041 0.018,-5.0729 0.6904,-6.0752 5.7912,-8.6662 10.6182,-5.394 31.0217,-10.9755 40.0686,-10.9611 14.0275,0.018 48.0509,4.482 52.4309,6.8726 2.207,1.2044 9.5498,4.0223 16.3171,6.2618 15.1155,5.0022 17.6875,7.1259 17.6875,14.6045 0,7.4548 -3.3674,11.0872 -13.8424,14.9322 -7.3229,2.6879 -12.1783,3.1039 -36.144,3.0965 -15.2267,-0.01 -33.9139,-0.5607 -41.5273,-1.2362 z"
       style="fill:#000000;stroke-width:1.53804469" />
  </g>
</svg>
