<?xml version="1.0" encoding="UTF-8" standalone="no"?>
<svg
   xmlns:dc="http://purl.org/dc/elements/1.1/"
   xmlns:cc="http://creativecommons.org/ns#"
   xmlns:rdf="http://www.w3.org/1999/02/22-rdf-syntax-ns#"
   xmlns:svg="http://www.w3.org/2000/svg"
   xmlns="http://www.w3.org/2000/svg"
   id="svg8"
   viewBox="0 0 126.9102745 56.5308062083"
   height="213.65974px"
   width="479.66088px"
   version="1.1">
  <defs
     id="defs96" />
  <metadata
     id="metadata5">
    <rdf:RDF>
      <cc:Work
         rdf:about="">
        <dc:format>image/svg+xml</dc:format>
        <dc:type
           rdf:resource="http://purl.org/dc/dcmitype/StillImage" />
        <dc:title />
      </cc:Work>
    </rdf:RDF>
  </metadata>
  <g
     id="g93"
     transform="matrix(1.000000,0.000000,0.000000,1.000000,946.761240,-1402.370042)">
    <path
       id="path1127"
       d="m -880.17058,1458.1749 c -0.45991,-0.7431 1.80081,-1.3612 5.023,-1.3728 3.22215,-0.018 7.45824,-0.4494 9.41364,-0.9732 6.5895,-1.7648 -7.70166,-6.6923 -19.48814,-6.7195 -7.31748,-0.018 -9.5596,-0.459 -7.90674,-1.5585 1.59669,-1.0624 -2.66563,-1.4478 -13.8424,-1.2517 -8.88219,0.1555 -17.87983,-0.2257 -19.99462,-0.8488 -9.45168,-2.7828 -23.7556,-11.698 -18.76883,-11.698 1.10005,0 1.11897,-1.7508 0.0578,-5.5848 -1.1769,-4.2624 -1.05651,-6.0405 0.50889,-7.5091 1.92717,-1.8084 16.20786,-7.1507 21.27607,-7.9592 10.19733,-1.6265 17.34357,-4.4734 18.4351,-7.3444 0.93616,-2.4611 2.43173,-3.1448 6.46677,-2.955 8.94521,0.4206 23.32538,3.8484 28.16063,6.7124 2.53786,1.5032 9.09382,3.2151 14.56896,3.8043 5.47511,0.5896 11.70414,1.9698 13.84238,3.0679 2.1382,1.0981 6.48312,3.1116 9.65534,4.4742 3.17214,1.3627 5.76758,3.2031 5.76758,4.0901 0,0.8872 1.54203,2.1829 3.42679,2.8801 3.30827,1.2237 3.25171,1.3581 -1.63615,3.8858 -5.99303,3.0991 -5.72573,5.4442 0.97888,8.5898 6.52556,3.0615 5.66725,6.5808 -2.01675,8.2703 -3.37473,0.7422 -9.01578,2.7844 -12.53567,4.5389 -5.40597,2.6945 -7.02947,2.9029 -10.45421,1.3425 -4.94501,-2.2531 -13.59044,-2.5728 -10.11393,-0.3744 1.82916,1.1567 1.5387,1.6926 -1.538,2.8369 -5.67993,2.1125 -18.33487,3.1989 -19.28851,1.6558 z"
       style="fill:#000000;stroke-width:1.53804469" />
  </g>
</svg>
