<?xml version="1.0" encoding="UTF-8" standalone="no"?>
<!-- Created with Inkscape (http://www.inkscape.org/) -->

<svg
   xmlns:dc="http://purl.org/dc/elements/1.1/"
   xmlns:cc="http://creativecommons.org/ns#"
   xmlns:rdf="http://www.w3.org/1999/02/22-rdf-syntax-ns#"
   xmlns:svg="http://www.w3.org/2000/svg"
   xmlns="http://www.w3.org/2000/svg"
   xmlns:sodipodi="http://sodipodi.sourceforge.net/DTD/sodipodi-0.dtd"
   xmlns:inkscape="http://www.inkscape.org/namespaces/inkscape"
   width="400"
   height="400"
   viewBox="0 0 105.83334 105.83333"
   version="1.1"
   id="svg8"
   sodipodi:docname="rature5.svg"
   inkscape:version="0.92.4 (5da689c313, 2019-01-14)">
  <defs
     id="defs2" />
  <sodipodi:namedview
     id="base"
     pagecolor="#ffffff"
     bordercolor="#666666"
     borderopacity="1.0"
     inkscape:pageopacity="0.0"
     inkscape:pageshadow="2"
     inkscape:zoom="0.57381792"
     inkscape:cx="465.02167"
     inkscape:cy="119.2436"
     inkscape:document-units="mm"
     inkscape:current-layer="layer1"
     showgrid="false"
     units="px"
     inkscape:window-width="787"
     inkscape:window-height="705"
     inkscape:window-x="569"
     inkscape:window-y="0"
     inkscape:window-maximized="0" />
  <metadata
     id="metadata5">
    <rdf:RDF>
      <cc:Work
         rdf:about="">
        <dc:format>image/svg+xml</dc:format>
        <dc:type
           rdf:resource="http://purl.org/dc/dcmitype/StillImage" />
        <dc:title></dc:title>
      </cc:Work>
    </rdf:RDF>
  </metadata>
  <g
     inkscape:label="Calque 1"
     inkscape:groupmode="layer"
     id="layer1"
     transform="translate(0,-191.16668)">
    <path
       inkscape:connector-curvature="0"
       id="path1235"
       d="m 56.227034,252.10365 c 0.855701,-0.32651 1.548487,-0.93795 2.363467,-0.24489 a 5.1344391,5.1344391 0 0 0 3.871217,1.46622 c 2.159722,0 3.5452,-2.11893 4.523188,-1.99664 0.977989,0.12321 1.915225,1.79288 4.074947,1.67074 2.159737,-0.12321 3.504464,-2.07826 5.74569,-3.83048 2.241226,-1.75221 5.215943,-2.44497 4.074946,-5.58269 -1.140935,-3.13773 -2.770957,-2.32269 -4.074946,-2.89331 -1.304036,-0.56985 -1.670728,-2.44497 -3.137711,-2.32268 a 11.613612,11.613612 0 0 0 -4.074962,0.85631 c -0.977988,0.61144 -2.770957,2.81184 -3.748945,2.81184 -0.977988,0 -1.181749,-1.91532 -2.32273,-1.91532 -1.140935,0 -2.567212,0.93794 -3.748945,1.01803 -1.181749,0.077 -2.648732,2.28187 -3.341471,2.44497 -0.692755,0.16326 -1.996729,1.99664 -2.607964,1.95598 a 6.3161752,6.3161752 0 0 0 -2.404219,0.48822 c -0.570468,0.2033 -2.037481,0.65148 -1.71148,1.71141 0.326048,1.05961 -1.100275,2.44497 1.263223,3.54524 a 6.5199227,6.5199227 0 0 0 5.25668,0.81474 z"
       style="stroke-width:4.07495165" />
  </g>
</svg>
